Cruz,82
Kaitlin,88
Amery,75
Fredericka,97
Francis,85
Ayanna,85
Abraham,83
Hedda,89
Keaton,79
Penelope,79
Nichole,79
Fleur,85
Maxine,82
Nora,104
Acton,100
Allistair,89
Marvin,93
Chloe,88
Sara,87
Bethany,93
Aimee,78
Forrest,89
Hadassah,88
Erich,83
Olivia,87
Hamish,84
Graham,88
Byron,90
Allegra,89
Faith,95
Anjolie,89
Lesley,93
Medge,93
Jena,91
Sonya,100
Georgia,95
Shannon,80
Kay,84
Grady,84
Fiona,99
Eaton,84
Uriel,71
Linus,90
Lance,90
Ifeoma,86
Leroy,79
Akeem,90
Neville,73
Colton,99
Alfreda,84
Declan,85
Germane,96
Aspen,104
Summer,92
Tatum,78
Urielle,85
Louis,90
Benedict,81
Lucas,92
Upton,88
Dawn,81
Branden,76
Emma,88
Kasper,88
Nero,62
Shad,85
Elton,93
Angela,81
Celeste,65
Stephen,77
Xenos,76
Jolene,85
Burke,78
Macaulay,84
Chastity,85
Cheryl,71
Madeson,86
Leslie,75
Inez,93
Sasha,75
Vladimir,84
Stacy,103
Deacon,95
Kylee,89
Porter,85
Callum,95
Sonia,74
Amity,86
Harrison,76
Tarik,94
Pandora,78
Gemma,94
Diana,79
Camilla,84
Haviva,89
Christopher,86
Joseph,77
Amber,90
Brock,99
Jaquelyn,71
Megan,77
Silas,89
Kiona,84
Berk,86
Justina,91
Melyssa,94
Imogene,94
Cecilia,102
Bernard,104
Remedios,102
David,85
Noel,109
Grant,83
Tyler,91
Ahmed,69
Barbara,96
Aline,90
Dahlia,100
Wynter,88
Marah,75
Giselle,101
Nina,97
Hedwig,105
Martina,83
Rae,78
Mason,79
Nerea,106
Adrian,92
Camille,106
Malachi,76
Derek,87
Oleg,96
Juliet,75
Boris,80
Rachel,94
Sandra,93
Althea,92
Sopoline,76
Idona,85
Dana,93
Ella,92
Nicole,103
Alika,93
Germaine,92
Piper,88
Suki,93
Justine,82
Genevieve,76
Gretchen,79
Judah,97
Aurelia,89
Adara,94
Amethyst,93
Melanie,84
Shoshana,88
Ross,89
Ralph,75
Heidi,98
Portia,81
Regan,85
Lenore,83
Xavier,88
Cyrus,85
Yoshi,90
Macy,79
Lacey,87
Sierra,84
Mercedes,92
Blaze,79
Belle,92
Nola,98
Maxwell,91
Seth,72
Camden,79
Brandon,83
Nell,89
Todd,94
Flavia,84
Isabella,73
Willa,98
Cameron,154
Cade,83
Beatrice,97
Griffith,98
Hillary,85
Nigel,90
Candice,98
Ingrid,78
Rebecca,93
Quinlan,86
Kathleen,71
Alexandra,65
Sydnee,96
Prescott,89
Cynthia,88
Oprah,78
Lewis,100
Ramona,87
Dane,79
Alana,74
Lynn,100
Jennifer,103
Riley,104
Unity,91
Cole,99
Karyn,112
Bert,80
Arsenio,92
Bruno,89
Zane,83
Vera,89
Kellie,84
Abdul,95
Neve,89
Mohammad,99
Abbot,76
Ali,86
Clementine,68
Willow,87
Curran,80
Paki,84
Myra,93
Timon,83
Olympia,102
Elijah,96
Isabelle,86
Chancellor,75
Asher,95
Kuame,94
Charity,69
Jerome,76
Naomi,94
Ava,88
Jorden,87
Cadman,98
Ciaran,73
Hammett,93
Alan,71
Lisandra,92
Amos,90
Iona,76
Solomon,105
Jermaine,104
Ulric,75
Ashton,84
Isaac,84
Madeline,94
Chadwick,65
Neil,71
Tucker,93
Destiny,91
Susan,91
Trevor,99
Allen,92
Jaden,80
Joan,94
Britanney,87
Micah,86
Barry,94
Davis,64
Lacy,85
Rogan,92
Kelly,143
Bell,76
Connor,86
Walter,89
Meredith,72
Tanisha,65
Noelani,101
Felix,86
Elizabeth,103
Cathleen,74
Stewart,78
Skyler,84
Driscoll,89
Abra,79
Burton,87
Nehru,91
Karly,89
Sawyer,78
Patricia,93
Shea,92
Catherine,83
Shay,83
Heather,91
Hall,85
MacKenzie,107
May,87
Kevyn,102
Denton,87
Holmes,88
Jesse,96
Marshall,80
Cooper,92
Callie,87
Rajah,90
Nyssa,87
Darius,82
Dominique,76
Priscilla,81
Cleo,104
Claudia,86
Tasha,75
Nissim,82
Sylvester,84
Raya,84
Miriam,108
Zeph,80
Violet,87
Candace,92
Jack,85
Coby,72
Zachary,72
Illiana,90
Florence,64
Hyacinth,76
Demetrius,89
Quail,86
Lysandra,85
Kaseem,73
Debra,89
Laith,75
Price,80
Kevin,78
Andrew,73
Marcia,88
Raphael,88
Marny,93
Deirdre,81
Risa,77
Octavia,83
Ima,96
Gannon,103
Yetta,86
Talon,79
Zahir,73
Ray,89
Mollie,91
Elaine,81
Reagan,88
Jeremy,72
Sacha,75
Emmanuel,91
Kylie,83
Dexter,83
Pearl,79
Alexander,77
Lionel,90
Cullen,89
Adam,64
Nadine,76
Jillian,100
Dustin,102
Odysseus,70
Tad,97
Victor,74
Alea,94
Aladdin,90
Sean,82
Shana,105
acqueline,85
Xantha,83
Charles,69
Zoe,85
Teagan,83
Eugenia,86
Abel,84
Paul,95
Morgan,89
Helen,84
Nathan,70
Colt,101
Ulysses,92
Plato,86
Ivy,99
Amir,84
Carla,84
Brett,84
Joelle,95
Herman,95
Alec,105
Anthony,79
Stephanie,91
Gary,82
Roth,107
Hector,97
Hedley,98
Dominic,84
Deanna,97
Clinton,90
Adena,90
Xyla,111
Matthew,77
Macon,85
Dolan,101
Octavius,65
Gabriel,96
Rhea,87
Alden,99
Hedy,71
Murphy,86
Victoria,92
Conan,76
Rashad,85
Amelia,94
Katell,83
Sarah,80
Martha,77
Wing,82
Scott,69
Chanda,101
Wade,92
Maryam,98
Macey,82
Natalie,79
Cassidy,107
Sydney,90
Dara,99
Anne,89
Leilani,93
Judith,71
Whilemina,87
Evelyn,81
Astra,82
Kitra,76
Kyra,86
Kareem,104
Madaline,90
Aidan,79
Merritt,71
Keegan,99
Leila,80
Carol,84
Delilah,88
Drake,85
Virginia,95
Justin,75
Hiram,78
Noelle,89
Chiquita,107
Charissa,102
Tatiana,83
Thaddeus,74
Joshua,87
Buffy,89
Amanda,80
Zelenia,112
Jocelyn,80
Deborah,93
Melvin,72
Kim,91
Rudyard,84
Palmer,71
Tanek,88
John,84
Simone,89
Yvonne,78
Kristen,76
Randall,83
Reese,82
Serina,89
Thomas,88
Dillon,89
Hannah,94
Levi,82
Phillip,68
Kermit,82
Lana,92
Dorothy,76
Tamekah,89
Hermione,62
Gail,85
Ferdinand,78
Maggy,76
Veronica,90
Kelsey,82
Addison,88
Pamela,93
Robert,80
Vernon,76
Constance,87
Zia,92
Colleen,82
Kalia,89
Moana,84
Indigo,88
Jayme,98
Daquan,89
Timothy,76
Emily,95
Mira,78
Thor,82
Inga,87
Lucy,74
Kirby,91
Nayda,78
Chava,94
Beck,83
Gray,107
Audra,108
Brittany,80
Illana,91
Warren,86
Zenia,76
Dylan,83
Chantale,81
Azalia,86
Joel,76
Nasim,90
Lane,69
Baxter,84
Reece,101
Fatima,94
Caldwell,104
Nolan,91
Elvis,80
Jamal,80
Beverly,88
Hop,82
Mechelle,82
Cara,100
Calvin,83
Yoshio,79
Kelsie,79
Gregory,93
Julie,95
Bevis,76
Wilma,77
Salvador,90
Whitney,70
Farrah,77
Wayne,83
Francesca,62
Blythe,95
Ocean,98
Maite,109
Cedric,87
Dacey,74
Damian,85
Donna,100
Lyle,72
Jameson,96
Christine,79
Brent,63
Wang,95
Tiger,88
Desirae,86
Hakeem,83
Jason,80
Zephania,87
Cassady,74
Karina,92
Lani,67
Jada,79
Aurora,98
Yolanda,80
Aiko,91
Rebekah,89
Marsden,82
Kimberley,81
Quynn,77
Brielle,114
Galvin,101
Sharon,78
Wendy,85
Carter,85
Tanya,88
Norman,70
Wallace,92
Hadley,94
Kato,93
Amaya,79
Venus,84
Jakeem,98
Idola,107
Hu,98
Blake,86
Caryn,87
Leandra,83
Mia,86
Ora,86
Shafira,86
Channing,93
Ronan,69
Hiroko,91
Vanna,99
Arthur,78
Lilah,83
Aileen,86
Castor,79
Brooke,72
Donovan,103
Clio,77
Kyla,83
Nevada,93
Quintessa,95
Hollee,77
Harding,91
Caleb,101
Ursa,92
Vivian,99
Jasmine,86
Zephr,108
Claire,76
Chaim,75
Ezra,71
Amena,78
Hyatt,85
Daphne,60
Guinevere,89
Sophia,84
Melissa,82
Montana,100
Jade,92
Hilda,100
Grace,79
Ignatius,81
Brody,93
Sylvia,97
Rylee,70
Laurel,77
Echo,95
Sybill,84
Freya,91
Doris,96
Kane,85
Malcolm,80
Jasper,80
Christian,75
Angelica,80
Ignacia,86
Reed,75
Galena,87
Jerry,80
Autumn,84
Chase,97
Ria,73
Dale,80
Rhoda,83
Shelby,82
Damon,95
Jescie,76
Rama,82
Michael,79
Jelani,81
Kyle,89
Samson,102
Lawrence,95
Yael,82
Renee,70
Chandler,81
Mara,88
Colby,99
Armand,79
Zenaida,83
Erasmus,80
Kiayada,90
Carl,82
Aphrodite,90
Carissa,101
Hanna,89
Alvin,88
Jessica,89
Thane,72
Mikayla,102
Craig,86
Carly,93
Rafael,65
Elmo,83
Bo,85
Mufutau,91
Roanna,79
Hanae,104
Lois,90
Geoffrey,97
Jamalia,104
Rahim,78
Sheila,85
Ruby,93
Brenda,92
Honorato,73
Wyoming,67
Ivan,96
Alfonso,87
Jana,78
Zena,105
Tate,104
Linda,81
Bertha,93
Ori,87
Graiden,85
Anastasia,73
Quon,79
Mariam,91
Mannix,85
Halee,101
Iola,91
Richard,88
Sigourney,90
Daniel,88
Gay,69
Wynne,70
Harriet,84
Omar,91
Lydia,100
Magee,78
Jacob,99
Troy,87
Ina,84
Winifred,91
Dai,81
Shaine,82
Phelan,83
Hunter,81
Dalton,59
Tobias,81
Benjamin,81
Harper,91
Ryan,89
Alisa,87
Hayley,87
Brynn,93
Velma,80
Patience,87
Wanda,69
Karleigh,70
Colin,77
Uma,100
Jessamine,111
Daria,91
Hasad,98
Hayden,91
Calista,82
Rosalyn,88
Myles,82
Jane,90
Bryar,95
Dante,74
Katelyn,89
Jenna,92
Herrod,96
Cailin,91
Lavinia,77
Valentine,83
Raja,98
Leonard,83
Kadeem,84
August,96
Elliott,98
Mari,83
Wesley,71
Sage,89
Lara,94
Lareina,89
Brendan,86
Lucian,104
Ginger,93
Savannah,91
Alexis,89
Rhona,94
Avye,85
Shelly,80
Amy,95
Brianna,76
Samuel,107
Margaret,91
Mark,88
Phoebe,92
Ethan,59
Robin,76
TaShya,67
Yardley,87
Kamal,93
Jaime,82
Noble,79
Lila,97
Hayes,93
Jared,95
Nelle,81
Minerva,79
Dean,68
Madonna,89
Martena,95
Xandra,104
Eliana,89
Christen,90
Zelda,85
Clayton,95
Iris,70
Naida,77
Wyatt,79
Geraldine,95
Fritz,87
Garrison,98
Olga,94
Bruce,84
Daryl,74
Alice,87
Henry,88
Barclay,87
Quentin,78
Charlotte,89
Tana,86
Eve,97
Emerald,83
Ulla,69
Maris,92
Lee,132
Brenna,91
Reuben,88
Indira,66
Ebony,91
Cheyenne,84
Quyn,106
Emerson,75
Madison,78
Kimberly,90
Eleanor,74
Ian,88
Yen,88
Holly,89
Cherokee,86
Kameko,74
Whoopi,91
Iliana,82
Denise,99
Kirsten,87
Mallory,82
Alexa,91
Kenneth,85
Adria,77
Desiree,89
Keith,78
Sade,83
Yeo,84
Kirk,83
Luke,84
Alyssa,84
Mariko,86
Blossom,98
Armando,85
Halla,97
Lael,84
Darrel,84
Maya,75
Otto,79
Danielle,68
Xaviera,87
Zachery,91
Gage,91
Carlos,86
Cassandra,100
Garth,97
Josephine,85
September,88
Irma,90
Ezekiel,99
Quin,90
Michelle,75
Travis,77
Quinn,173
Avram,84
Giacomo,80
Winter,96
Rhonda,93
Philip,83
Brennan,104
Bianca,78
Rina,100
Kasimir,76
April,80
Fallon,79
Russell,90
Carolyn,103
Axel,79
Walker,80
Adele,73
Uriah,73
Yuri,82
Vivien,89
Preston,81
Kerry,104
Molly,84
Joy,91
McKenzie,84
Maggie,81
Maia,88
Frances,108
Ursula,96
James,91
Jonah,83
Theodore,89
Eagan,99
Rooney,85
Vaughan,76
Lillith,79
Xena,80
Colette,86
Buckminster,78
Colorado,87
Abigail,92
Melodie,92
Rhiannon,75
Hilary,80
Len,72
Isadora,103
Uta,93
Austin,69
Petra,88
Ryder,80
Leo,83
Kiara,81
Audrey,72
Tashya,80
Kirestin,73
Dennis,99
Irene,83
Moses,91
Amal,85
Phyllis,88
Jenette,86
Guy,95
Haley,75
Hayfa,83
Martin,85
Cain,77
Mary,84
Alma,87
Chelsea,85
Jin,101
Kibo,87
Noah,77
Evangeline,90
Jarrod,103
Xander,110
Arden,84
Basia,108
Perry,94
Yasir,93
Keelie,72
Breanna,79
Stone,93
Igor,91
Gavin,83
Samantha,86
Cameran,75
Tyrone,82
Julian,83
Lunea,85
Yvette,107
Isaiah,104
Caesar,69
Merrill,85
Meghan,85
Kessie,89
Lars,60
Hashim,108
Wylie,79
Devin,90
Melinda,67
Scarlett,96
Brian,95
Fulton,83
Kennan,97
Jackson,109
Athena,102
Ariel,89
Lester,85
Stuart,82
Charde,78
Howard,87
Nash,80
Shelley,85
Gillian,85
Veda,89
Emery,75
Miranda,81
Vielka,95
Oscar,84
Imani,101
Ira,72
Oren,88
Cairo,82
Clarke,79
Pascale,79
Ann,106
Baker,84
Lev,95
Dieter,92
Mona,90
Quamar,88
Aquila,93
Lacota,97
Josiah,102
Tanner,79
Rana,105
Patrick,103
Scarlet,101
Briar,85
Quemby,86
Fletcher,74
Kai,87
Stacey,72
Jonas,94
Eric,87
Clare,93
Harlan,94
Fuller,84
Tamara,82
Leah,86
Orla,101
Sebastian,84
Shellie,77
Regina,82
Libby,81
Raven,83
Brenden,97
Imelda,93
Ariana,77
Kenyon,82
Yuli,86
Leigh,86
Owen,80
Lucius,88
Ferris,84
Cody,78
Paula,82
Slade,86
Chaney,88
Fitzgerald,74
Hoyt,74
Dora,99
Keefe,75
Barrett,78
Maisie,78
Jael,81
Amela,98
Latifah,87
Aristotle,94
Duncan,103
Basil,94
Ainsley,72
William,71
Britanni,90
Laura,84
George,84
Kylan,99
Cally,70
Beau,76
Paloma,95
Signe,83
Brynne,92
Kieran,91
Bree,100
Darryl,91
Tara,89
Peter,98
Kennedy,95
Shaeleigh,88
Drew,98
Odette,88
Gwendolyn,86
Lamar,87
Zorita,97
Lillian,81
Gareth,89
Emi,104
Zeus,91
Bradley,75
Larissa,76
Clark,79
Stella,92
Chester,81
Malik,88
Tatyana,97
Hilel,95
Erica,82
Adrienne,91
Gil,80
Carson,91
Anika,80
Evan,90
Kaye,90
Keane,84
Oliver,95
Liberty,75
Roary,112
Nomlanga,87
Sybil,86
Nicholas,100
Dorian,80
India,90
Felicia,100
Ivana,80
Finn,105
Kylynn,99
Jemima,75
Serena,84
Hope,71
Edan,87
Knox,91
Ivor,98
Orli,67
Keely,96
Teegan,81
Nathaniel,92
Jeanette,100
Hamilton,100
Nita,100
Jordan,137
Gloria,80
Orlando,74
Odessa,73
Aretha,98
Gisela,72
Ishmael,84
Logan,99
Aaron,83
Karen,99
Ivory,81
Glenna,86
Simon,84
Maile,84
Selma,90
Erin,84
Ila,104
Yoko,96
Brady,89
Fay,90
MacKensie,93
Raymond,263
Rinah,77
Janna,86
Griffin,70
Orson,87
Edward,90
Rowan,76
Rigel,67
Ruth,91
Steven,85
Vincent,86
Keiko,88
Jolie,88
Steel,101
Demetria,81
Cora,68
Xanthus,78
Flynn,91
Rose,82
Garrett,93
